Week2/2ndinlabb/simulation/qsim/2nd.msim.vcd
$comment
	File created using the following command:
		vcd file 2nd.msim.vcd -direction
$end
$date
	Wed May 10 15:55:53 2023
$end
$version
	ModelSim Version 10.1d
$end
$timescale
	1ps
$end
$scope module SECOOND_vlg_vec_tst $end
$var reg 1 ! SE1 $end
$var reg 1 " SW2 $end
$var reg 1 # TCO $end
$var reg 1 $ clock $end
$var reg 1 % reset $end
$var wire 1 & LEA $end
$var wire 1 ' LNF $end
$var wire 1 ( LNL $end
$var wire 1 ) LNR $end
$var wire 1 * LSF $end
$var wire 1 + LSL $end
$var wire 1 , LSR $end
$var wire 1 - LWA $end
$var wire 1 . sampler $end
$scope module i1 $end
$var wire 1 / gnd $end
$var wire 1 0 vcc $end
$var wire 1 1 unknown $end
$var tri1 1 2 devclrn $end
$var tri1 1 3 devpor $end
$var tri1 1 4 devoe $end
$var wire 1 5 LWA~output_o $end
$var wire 1 6 LSL~output_o $end
$var wire 1 7 LEA~output_o $end
$var wire 1 8 LSF~output_o $end
$var wire 1 9 LSR~output_o $end
$var wire 1 : LNR~output_o $end
$var wire 1 ; LNF~output_o $end
$var wire 1 < LNL~output_o $end
$var wire 1 = clock~input_o $end
$var wire 1 > clock~inputclkctrl_outclk $end
$var wire 1 ? reset~input_o $end
$var wire 1 @ TCO~input_o $end
$var wire 1 A SE1~input_o $end
$var wire 1 B SW2~input_o $end
$var wire 1 C reg_fstate.S0~0_combout $end
$var wire 1 D reg_fstate.S0~1_combout $end
$var wire 1 E reg_fstate.S0~2_combout $end
$var wire 1 F fstate.S0~q $end
$var wire 1 G LSL~0_combout $end
$var wire 1 H fstate.S1~0_combout $end
$var wire 1 I reg_fstate.S1~0_combout $end
$var wire 1 J fstate.S1~q $end
$var wire 1 K reg_fstate.S2~0_combout $end
$var wire 1 L fstate.S2~q $end
$var wire 1 M reg_fstate.S3~0_combout $end
$var wire 1 N reg_fstate.S3~1_combout $end
$var wire 1 O fstate.S3~q $end
$var wire 1 P LWA~0_combout $end
$var wire 1 Q LEA~0_combout $end
$var wire 1 R LSR~0_combout $end
$upscope $end
$upscope $end
$enddefinitions $end
#0
$dumpvars
1!
1"
1#
0$
1%
0&
0'
0(
0)
0*
0+
0,
0-
x.
0/
10
x1
12
13
14
05
06
07
08
09
0:
0;
0<
0=
0>
1?
1@
1A
1B
1C
0D
0E
0F
1G
0H
1I
0J
0K
0L
0M
0N
0O
0P
0Q
0R
$end
#40000
1$
0%
1=
0?
1>
0.
0G
0C
1H
1E
16
18
1;
1<
1+
1*
1'
1(
#80000
0$
0=
0>
1.
#100000
0!
0A
0.
#120000
1$
1=
1>
1.
1J
1F
1M
1D
1G
1R
1N
0H
06
08
0;
0<
1:
19
0+
0*
0'
0(
1)
1,
#160000
0$
0=
0>
0.
#200000
0"
1$
0B
1=
1>
1.
0M
0E
0N
1O
0J
1C
0D
1P
0R
15
0:
09
1-
0)
0,
#240000
0$
0=
0>
0.
#280000
1$
1=
1>
1.
0O
0F
0C
0G
0P
1E
1H
16
18
1;
1<
05
1+
1*
1'
1(
0-
#300000
1"
1B
0.
#310000
0#
0@
1.
0I
1C
0E
#320000
0$
0=
0>
0.
#360000
1$
1=
1>
1.
#400000
1!
0"
0$
1A
0B
0=
0>
0.
#440000
1$
1=
1>
1.
#470000
1#
1@
0.
1I
0C
1E
#480000
0$
0=
0>
1.
#500000
1"
1B
0.
#520000
1$
1=
1>
1.
1J
1F
1K
1G
1R
0H
06
08
0;
0<
1:
19
0+
0*
0'
0(
1)
1,
#560000
0$
0=
0>
0.
#600000
0!
1$
0A
1=
1>
1.
1M
0K
1D
1N
1L
0J
1Q
0R
17
0:
09
1&
0)
0,
#640000
0$
0=
0>
0.
#680000
1$
1=
1>
1.
1O
0L
1C
0M
0D
1P
0Q
0E
0N
15
07
1-
0&
#700000
0"
1!
0B
1A
0.
#720000
0$
0=
0>
1.
#760000
1$
1=
1>
0.
0O
0F
0C
0G
0P
1E
1H
16
18
1;
1<
05
1+
1*
1'
1(
0-
#800000
1"
0$
1B
0=
0>
1.
#840000
1$
1=
1>
0.
1J
1F
1K
1G
1R
0H
06
08
0;
0<
1:
19
0+
0*
0'
0(
1)
1,
#880000
0$
0=
0>
1.
#900000
0"
0B
0.
#920000
1$
1=
1>
1.
1L
0J
1D
0K
1Q
0R
0E
17
0:
09
1&
0)
0,
#960000
0$
0=
0>
0.
