Week1/simulation/qsim/firstweekprelab.msim.vcd
$comment
	File created using the following command:
		vcd file firstweekprelab.msim.vcd -direction
$end
$date
	Wed Jul 19 19:00:24 2023
$end
$version
	ModelSim Version 10.1d
$end
$timescale
	1ps
$end
$scope module firstweekprelab_vlg_vec_tst $end
$var reg 1 ! clk $end
$var wire 1 " a $end
$var wire 1 # b $end
$var wire 1 $ c $end
$var wire 1 % d $end
$var wire 1 & e $end
$var wire 1 ' f $end
$var wire 1 ( g $end
$var wire 1 ) q [3] $end
$var wire 1 * q [2] $end
$var wire 1 + q [1] $end
$var wire 1 , q [0] $end
$var wire 1 - sampler $end
$scope module i1 $end
$var wire 1 . gnd $end
$var wire 1 / vcc $end
$var wire 1 0 unknown $end
$var tri1 1 1 devclrn $end
$var tri1 1 2 devpor $end
$var tri1 1 3 devoe $end
$var wire 1 4 clk~combout $end
$var wire 1 5 himan|22~combout $end
$var wire 1 6 himan|23~regout $end
$var wire 1 7 inst8~combout $end
$var wire 1 8 himan|26~regout $end
$var wire 1 9 inst8~0_combout $end
$var wire 1 : himan|74~combout $end
$var wire 1 ; himan|25~regout $end
$var wire 1 < himan|71~combout $end
$var wire 1 = himan|24~regout $end
$var wire 1 > inst|81~0_combout $end
$var wire 1 ? inst|85~combout $end
$var wire 1 @ inst|86~0_combout $end
$var wire 1 A inst|87~combout $end
$var wire 1 B inst|82~0_combout $end
$var wire 1 C inst|83~combout $end
$var wire 1 D inst|84~0_combout $end
$upscope $end
$upscope $end
$enddefinitions $end
#0
$dumpvars
0!
0"
0#
0$
1%
1&
0'
0(
1,
0+
0*
1)
x-
0.
1/
x0
11
12
13
04
15
06
07
08
09
1:
0;
1<
0=
0>
1?
0@
0A
0B
0C
1D
$end
#20000
1!
14
0-
18
0D
0?
0,
0%
0&
#40000
0!
04
1-
0<
0:
05
#60000
1!
14
0-
1<
1:
15
1=
1;
16
08
1D
1A
1@
1?
1*
1+
0)
1,
1%
1(
1'
1&
#80000
0!
04
1-
#100000
1!
14
0-
18
0D
1B
0A
0@
0?
1>
0,
0%
1#
0(
0'
0&
1"
#120000
0!
04
1-
0:
#140000
1!
14
0-
1:
0;
08
1?
0>
0+
1,
1&
0"
#160000
0!
04
1-
#180000
1!
14
0-
18
1D
0B
1>
0,
1%
0#
1"
#200000
0!
04
1-
0<
0:
#220000
1!
14
0-
1<
1:
0=
1;
08
0D
1@
0>
19
0*
1+
1,
0%
1'
0"
#240000
0!
04
1-
#260000
1!
14
0-
18
1C
0?
17
0,
1$
0&
0;
08
06
1D
0C
0@
1?
07
09
0+
1,
1)
1%
0$
0'
1&
#280000
0!
04
1-
#300000
1!
14
0-
18
0D
0?
0,
0%
0&
#320000
0!
04
1-
0<
0:
05
#340000
1!
14
0-
1<
1:
15
1=
1;
16
08
1D
1A
1@
1?
1*
1+
0)
1,
1%
1(
1'
1&
#360000
0!
04
1-
#380000
1!
14
0-
18
0D
1B
0A
0@
0?
1>
0,
0%
1#
0(
0'
0&
1"
#400000
0!
04
1-
0:
#420000
1!
14
0-
1:
0;
08
1?
0>
0+
1,
1&
0"
#440000
0!
04
1-
#460000
1!
14
0-
18
1D
0B
1>
0,
1%
0#
1"
#480000
0!
04
1-
0<
0:
#500000
1!
14
0-
1<
1:
0=
1;
08
0D
1@
0>
19
0*
1+
1,
0%
1'
0"
#520000
0!
04
1-
#540000
1!
14
0-
18
1C
0?
17
0,
1$
0&
0;
08
06
1D
0C
0@
1?
07
09
0+
1,
1)
1%
0$
0'
1&
#560000
0!
04
1-
#580000
1!
14
0-
18
0D
0?
0,
0%
0&
#600000
0!
04
1-
0<
0:
05
#620000
1!
14
0-
1<
1:
15
1=
1;
16
08
1D
1A
1@
1?
1*
1+
0)
1,
1%
1(
1'
1&
#640000
0!
04
1-
#660000
1!
14
0-
18
0D
1B
0A
0@
0?
1>
0,
0%
1#
0(
0'
0&
1"
#680000
0!
04
1-
0:
#700000
1!
14
0-
1:
0;
08
1?
0>
0+
1,
1&
0"
#720000
0!
04
1-
#740000
1!
14
0-
18
1D
0B
1>
0,
1%
0#
1"
#760000
0!
04
1-
0<
0:
#780000
1!
14
0-
1<
1:
0=
1;
08
0D
1@
0>
19
0*
1+
1,
0%
1'
0"
#800000
0!
04
1-
#820000
1!
14
0-
18
1C
0?
17
0,
1$
0&
0;
08
06
1D
0C
0@
1?
07
09
0+
1,
1)
1%
0$
0'
1&
#840000
0!
04
1-
#860000
1!
14
0-
18
0D
0?
0,
0%
0&
#880000
0!
04
1-
0<
0:
05
#900000
1!
14
0-
1<
1:
15
1=
1;
16
08
1D
1A
1@
1?
1*
1+
0)
1,
1%
1(
1'
1&
#920000
0!
04
1-
#940000
1!
14
0-
18
0D
1B
0A
0@
0?
1>
0,
0%
1#
0(
0'
0&
1"
#960000
0!
04
1-
0:
#980000
1!
14
0-
1:
0;
08
1?
0>
0+
1,
1&
0"
